{
  "kind": "collectionType",
  "collectionName": "stores",
  "info": {
    "name": "Store"
  },
  "options": {
    "increments": true,
    "timestamps": true
  },
  "attributes": {
    "Name": {
      "type": "string",
      "required": true
    },
    "isActive": {
      "type": "boolean",
      "default": true
    },
    "Description": {
      "type": "richtext",
      "default": " "
    },
    "headImage": {
      "collection": "file",
      "via": "related",
      "allowedTypes": [
        "files",
        "images",
        "videos"
      ],
      "plugin": "upload",
      "required": false
    },
    "categories": {
      "collection": "category",
      "via": "stores",
      "dominant": true
    },
    "Address": {
      "type": "richtext",
      "default": " "
    },
    "localities": {
      "via": "stores",
      "collection": "locality",
      "dominant": true
    }
  }
}
