{
  "routes": [
    {
      "method": "GET",
      "path": "/bulk-offers",
      "handler": "bulk-offer.find",
      "config": {
        "policies": []
      }
    },
    {
      "method": "GET",
      "path": "/bulk-offers/count",
      "handler": "bulk-offer.count",
      "config": {
        "policies": []
      }
    },
    {
      "method": "GET",
      "path": "/bulk-offers/:id",
      "handler": "bulk-offer.findOne",
      "config": {
        "policies": []
      }
    },
    {
      "method": "POST",
      "path": "/bulk-offers",
      "handler": "bulk-offer.create",
      "config": {
        "policies": []
      }
    },
    {
      "method": "PUT",
      "path": "/bulk-offers/:id",
      "handler": "bulk-offer.update",
      "config": {
        "policies": []
      }
    },
    {
      "method": "DELETE",
      "path": "/bulk-offers/:id",
      "handler": "bulk-offer.delete",
      "config": {
        "policies": []
      }
    }
  ]
}
